tweet-ar-000	0	vclaim-2264	1
tweet-ar-001	0	vclaim-2266	1
tweet-ar-002	0	vclaim-2267	1
tweet-ar-003	0	vclaim-2271	1
tweet-ar-004	0	vclaim-2270	1
tweet-ar-006	0	vclaim-2269	1
tweet-ar-008	0	vclaim-2282	1
tweet-ar-009	0	vclaim-2281	1
tweet-ar-010	0	vclaim-2276	1
tweet-ar-013	0	vclaim-2287	1
tweet-ar-013	0	vclaim-5250	1
tweet-ar-014	0	vclaim-2285	1
tweet-ar-015	0	vclaim-2290	1
tweet-ar-019	0	vclaim-2296	1
tweet-ar-020	0	vclaim-2300	1
tweet-ar-022	0	vclaim-2301	1
tweet-ar-023	0	vclaim-2304	1
tweet-ar-024	0	vclaim-2316	1
tweet-ar-025	0	vclaim-2321	1
tweet-ar-027	0	vclaim-2322	1
tweet-ar-028	0	vclaim-2319	1
tweet-ar-029	0	vclaim-2315	1
tweet-ar-030	0	vclaim-2324	1
tweet-ar-032	0	vclaim-2326	1
tweet-ar-033	0	vclaim-2329	1
tweet-ar-034	0	vclaim-2325	1
tweet-ar-035	0	vclaim-2331	1
tweet-ar-036	0	vclaim-2337	1
tweet-ar-037	0	vclaim-2334	1
tweet-ar-039	0	vclaim-2342	1
tweet-ar-041	0	vclaim-2346	1
tweet-ar-042	0	vclaim-2343	1
tweet-ar-044	0	vclaim-2351	1
tweet-ar-045	0	vclaim-2356	1
tweet-ar-046	0	vclaim-2361	1
tweet-ar-047	0	vclaim-2360	1
tweet-ar-048	0	vclaim-2359	1
tweet-ar-050	0	vclaim-2363	1
tweet-ar-051	0	vclaim-2372	1
tweet-ar-051	0	vclaim-0160	1
tweet-ar-052	0	vclaim-2370	1
tweet-ar-055	0	vclaim-2375	1
tweet-ar-055	0	vclaim-0168	1
tweet-ar-056	0	vclaim-2377	1
tweet-ar-057	0	vclaim-2378	1
tweet-ar-059	0	vclaim-2384	1
tweet-ar-060	0	vclaim-2387	1
tweet-ar-061	0	vclaim-2388	1
tweet-ar-062	0	vclaim-2386	1
tweet-ar-064	0	vclaim-2395	1
tweet-ar-065	0	vclaim-2397	1
tweet-ar-066	0	vclaim-2393	1
tweet-ar-067	0	vclaim-2394	1
tweet-ar-069	0	vclaim-2403	1
tweet-ar-070	0	vclaim-2401	1
tweet-ar-071	0	vclaim-2399	1
tweet-ar-072	0	vclaim-2405	1
tweet-ar-073	0	vclaim-2413	1
tweet-ar-075	0	vclaim-3062	1
tweet-ar-076	0	vclaim-3060	1
tweet-ar-078	0	vclaim-3070	1
tweet-ar-079	0	vclaim-3076	1
tweet-ar-081	0	vclaim-3081	1
tweet-ar-082	0	vclaim-3084	1
tweet-ar-083	0	vclaim-3089	1
tweet-ar-084	0	vclaim-3094	1
tweet-ar-085	0	vclaim-3093	1
tweet-ar-088	0	vclaim-3115	1
tweet-ar-090	0	vclaim-3123	1
tweet-ar-091	0	vclaim-3118	1
tweet-ar-092	0	vclaim-3134	1
tweet-ar-093	0	vclaim-3133	1
tweet-ar-094	0	vclaim-3140	1
tweet-ar-096	0	vclaim-3152	1
tweet-ar-097	0	vclaim-3146	1
tweet-ar-098	0	vclaim-3153	1
tweet-ar-099	0	vclaim-3148	1
tweet-ar-100	0	vclaim-3151	1
tweet-ar-101	0	vclaim-3147	1
tweet-ar-102	0	vclaim-3158	1
tweet-ar-103	0	vclaim-3157	1
tweet-ar-104	0	vclaim-3165	1
tweet-ar-105	0	vclaim-3169	1
tweet-ar-106	0	vclaim-3166	1
tweet-ar-108	0	vclaim-3177	1
tweet-ar-110	0	vclaim-3179	1
tweet-ar-111	0	vclaim-3185	1
tweet-ar-112	0	vclaim-3188	1
tweet-ar-116	0	vclaim-3200	1
tweet-ar-117	0	vclaim-3206	1
tweet-ar-118	0	vclaim-3198	1
tweet-ar-118	0	vclaim-0720	1
tweet-ar-120	0	vclaim-3210	1
tweet-ar-120	0	vclaim-4737	1
tweet-ar-121	0	vclaim-3208	1
tweet-ar-122	0	vclaim-3220	1
tweet-ar-123	0	vclaim-3221	1
tweet-ar-125	0	vclaim-3228	1
tweet-ar-126	0	vclaim-3230	1
tweet-ar-129	0	vclaim-3239	1
tweet-ar-130	0	vclaim-3233	1
tweet-ar-131	0	vclaim-3237	1
tweet-ar-132	0	vclaim-3242	1
tweet-ar-133	0	vclaim-3247	1
tweet-ar-137	0	vclaim-3241	1
tweet-ar-138	0	vclaim-3243	1
tweet-ar-139	0	vclaim-3240	1
tweet-ar-141	0	vclaim-3254	1
tweet-ar-144	0	vclaim-3263	1
tweet-ar-145	0	vclaim-3271	1
tweet-ar-146	0	vclaim-3267	1
tweet-ar-147	0	vclaim-3264	1
tweet-ar-148	0	vclaim-3272	1
tweet-ar-149	0	vclaim-3269	1
tweet-ar-151	0	vclaim-3275	1
tweet-ar-153	0	vclaim-3285	1
tweet-ar-154	0	vclaim-3289	1
tweet-ar-157	0	vclaim-3295	1
tweet-ar-158	0	vclaim-3297	1
tweet-ar-160	0	vclaim-3300	1
tweet-ar-161	0	vclaim-3298	1
tweet-ar-162	0	vclaim-3304	1
tweet-ar-163	0	vclaim-3301	1
tweet-ar-164	0	vclaim-3306	1
tweet-ar-167	0	vclaim-3318	1
tweet-ar-170	0	vclaim-3310	1
tweet-ar-171	0	vclaim-3312	1
tweet-ar-172	0	vclaim-3314	1
tweet-ar-173	0	vclaim-3325	1
tweet-ar-175	0	vclaim-3330	1
tweet-ar-178	0	vclaim-3339	1
tweet-ar-179	0	vclaim-3341	1
tweet-ar-179	0	vclaim-5083	1
tweet-ar-180	0	vclaim-3335	1
tweet-ar-181	0	vclaim-3350	1
tweet-ar-182	0	vclaim-3347	1
tweet-ar-184	0	vclaim-3344	1
tweet-ar-184	0	vclaim-4763	1
tweet-ar-187	0	vclaim-3370	1
tweet-ar-188	0	vclaim-3362	1
tweet-ar-189	0	vclaim-3365	1
tweet-ar-191	0	vclaim-3366	1
tweet-ar-194	0	vclaim-3375	1
tweet-ar-195	0	vclaim-3378	1
tweet-ar-196	0	vclaim-3385	1
tweet-ar-197	0	vclaim-3389	1
tweet-ar-200	0	vclaim-3396	1
tweet-ar-201	0	vclaim-3394	1
tweet-ar-202	0	vclaim-3404	1
tweet-ar-203	0	vclaim-3407	1
tweet-ar-204	0	vclaim-3410	1
tweet-ar-205	0	vclaim-3790	1
tweet-ar-206	0	vclaim-3798	1
tweet-ar-208	0	vclaim-3814	1
tweet-ar-210	0	vclaim-3819	1
tweet-ar-211	0	vclaim-3818	1
tweet-ar-212	0	vclaim-3822	1
tweet-ar-213	0	vclaim-3826	1
tweet-ar-214	0	vclaim-3840	1
tweet-ar-215	0	vclaim-3836	1
tweet-ar-216	0	vclaim-3844	1
tweet-ar-217	0	vclaim-3852	1
tweet-ar-218	0	vclaim-3846	1
tweet-ar-219	0	vclaim-3858	1
tweet-ar-221	0	vclaim-3859	1
tweet-ar-223	0	vclaim-3871	1
tweet-ar-226	0	vclaim-3876	1
tweet-ar-227	0	vclaim-3881	1
tweet-ar-228	0	vclaim-3878	1
tweet-ar-229	0	vclaim-3884	1
tweet-ar-230	0	vclaim-3882	1
tweet-ar-230	0	vclaim-0546	1
tweet-ar-235	0	vclaim-3905	1
tweet-ar-236	0	vclaim-3913	1
tweet-ar-238	0	vclaim-3920	1
tweet-ar-239	0	vclaim-3919	1
tweet-ar-240	0	vclaim-3924	1
tweet-ar-242	0	vclaim-3928	1
tweet-ar-243	0	vclaim-3931	1
tweet-ar-245	0	vclaim-3933	1
tweet-ar-246	0	vclaim-3935	1
tweet-ar-246	0	vclaim-4862	1
tweet-ar-247	0	vclaim-3944	1
tweet-ar-248	0	vclaim-3948	1
tweet-ar-250	0	vclaim-3957	1
tweet-ar-252	0	vclaim-3960	1
tweet-ar-255	0	vclaim-3976	1
tweet-ar-257	0	vclaim-3975	1
tweet-ar-258	0	vclaim-3991	1
tweet-ar-258	0	vclaim-0416	1
tweet-ar-260	0	vclaim-3998	1
tweet-ar-260	0	vclaim-0695	1
tweet-ar-262	0	vclaim-4001	1
tweet-ar-263	0	vclaim-4005	1
tweet-ar-264	0	vclaim-4010	1
tweet-ar-265	0	vclaim-4012	1
tweet-ar-266	0	vclaim-4019	1
tweet-ar-267	0	vclaim-4023	1
tweet-ar-269	0	vclaim-4020	1
tweet-ar-271	0	vclaim-4030	1
tweet-ar-272	0	vclaim-4029	1
tweet-ar-273	0	vclaim-4032	1
tweet-ar-275	0	vclaim-4055	1
tweet-ar-277	0	vclaim-4064	1
tweet-ar-278	0	vclaim-4068	1
tweet-ar-281	0	vclaim-4086	1
tweet-ar-281	0	vclaim-4910	1
tweet-ar-281	0	vclaim-1244	1
tweet-ar-282	0	vclaim-4085	1
tweet-ar-283	0	vclaim-4095	1
tweet-ar-284	0	vclaim-0397	1
tweet-ar-285	0	vclaim-0409	1
tweet-ar-287	0	vclaim-0430	1
tweet-ar-289	0	vclaim-0466	1
tweet-ar-290	0	vclaim-0493	1
tweet-ar-292	0	vclaim-0584	1
tweet-ar-293	0	vclaim-0599	1
tweet-ar-294	0	vclaim-0642	1
tweet-ar-295	0	vclaim-0762	1
tweet-ar-296	0	vclaim-0803	1
tweet-ar-296	0	vclaim-2779	1
tweet-ar-298	0	vclaim-0831	1
tweet-ar-301	0	vclaim-2139	1
tweet-ar-302	0	vclaim-2133	1
tweet-ar-304	0	vclaim-2135	1
tweet-ar-305	0	vclaim-2132	1
tweet-ar-308	0	vclaim-2146	1
tweet-ar-309	0	vclaim-2143	1
tweet-ar-311	0	vclaim-2152	1
tweet-ar-313	0	vclaim-2148	1
tweet-ar-314	0	vclaim-2153	1
tweet-ar-316	0	vclaim-2155	1
tweet-ar-317	0	vclaim-2163	1
tweet-ar-318	0	vclaim-2164	1
tweet-ar-319	0	vclaim-2157	1
tweet-ar-320	0	vclaim-2161	1
tweet-ar-321	0	vclaim-2162	1
tweet-ar-322	0	vclaim-2160	1
tweet-ar-324	0	vclaim-2168	1
tweet-ar-324	0	vclaim-4466	1
tweet-ar-328	0	vclaim-2180	1
tweet-ar-329	0	vclaim-2175	1
tweet-ar-330	0	vclaim-2181	1
tweet-ar-332	0	vclaim-2182	1
tweet-ar-333	0	vclaim-2190	1
tweet-ar-335	0	vclaim-2186	1
tweet-ar-338	0	vclaim-2194	1
tweet-ar-339	0	vclaim-2196	1
tweet-ar-340	0	vclaim-2192	1
tweet-ar-342	0	vclaim-2191	1
tweet-ar-343	0	vclaim-2197	1
tweet-ar-344	0	vclaim-2203	1
tweet-ar-346	0	vclaim-2200	1
tweet-ar-347	0	vclaim-2202	1
tweet-ar-348	0	vclaim-2201	1
tweet-ar-348	0	vclaim-4485	1
tweet-ar-348	0	vclaim-5237	1
tweet-ar-350	0	vclaim-2210	1
tweet-ar-351	0	vclaim-2212	1
tweet-ar-352	0	vclaim-2208	1
tweet-ar-354	0	vclaim-2206	1
tweet-ar-355	0	vclaim-2215	1
tweet-ar-356	0	vclaim-2222	1
tweet-ar-362	0	vclaim-2221	1
tweet-ar-366	0	vclaim-2228	1
tweet-ar-367	0	vclaim-2234	1
tweet-ar-369	0	vclaim-2225	1
tweet-ar-369	0	vclaim-0124	1
tweet-ar-369	0	vclaim-5235	1
tweet-ar-370	0	vclaim-2240	1
tweet-ar-371	0	vclaim-2238	1
tweet-ar-373	0	vclaim-2250	1
tweet-ar-373	0	vclaim-4476	1
tweet-ar-374	0	vclaim-2249	1
tweet-ar-376	0	vclaim-2248	1
tweet-ar-377	0	vclaim-2255	1
tweet-ar-381	0	vclaim-2415	1
tweet-ar-382	0	vclaim-2418	1
tweet-ar-383	0	vclaim-2424	1
tweet-ar-385	0	vclaim-2427	1
tweet-ar-386	0	vclaim-2431	1
tweet-ar-387	0	vclaim-2437	1
tweet-ar-388	0	vclaim-2434	1
tweet-ar-389	0	vclaim-2435	1
tweet-ar-390	0	vclaim-2438	1
tweet-ar-391	0	vclaim-2439	1
tweet-ar-393	0	vclaim-2445	1
tweet-ar-394	0	vclaim-2440	1
tweet-ar-396	0	vclaim-2455	1
tweet-ar-397	0	vclaim-2450	1
tweet-ar-398	0	vclaim-2446	1
tweet-ar-398	0	vclaim-4556	1
tweet-ar-398	0	vclaim-0180	1
tweet-ar-400	0	vclaim-2461	1
tweet-ar-401	0	vclaim-2459	1
tweet-ar-402	0	vclaim-2468	1
tweet-ar-403	0	vclaim-2467	1
tweet-ar-404	0	vclaim-2463	1
tweet-ar-406	0	vclaim-2470	1
tweet-ar-407	0	vclaim-2462	1
tweet-ar-409	0	vclaim-2477	1
tweet-ar-410	0	vclaim-2476	1
tweet-ar-411	0	vclaim-2475	1
tweet-ar-413	0	vclaim-2480	1
tweet-ar-414	0	vclaim-2484	1
tweet-ar-415	0	vclaim-2481	1
tweet-ar-416	0	vclaim-2490	1
tweet-ar-417	0	vclaim-2488	1
tweet-ar-418	0	vclaim-2485	1
tweet-ar-419	0	vclaim-2493	1
tweet-ar-420	0	vclaim-2486	1
tweet-ar-421	0	vclaim-2496	1
tweet-ar-422	0	vclaim-2497	1
tweet-ar-423	0	vclaim-2498	1
tweet-ar-425	0	vclaim-2503	1
tweet-ar-426	0	vclaim-2501	1
tweet-ar-427	0	vclaim-2502	1
tweet-ar-428	0	vclaim-2509	1
tweet-ar-429	0	vclaim-2511	1
tweet-ar-430	0	vclaim-2508	1
tweet-ar-431	0	vclaim-2510	1
tweet-ar-434	0	vclaim-2523	1
tweet-ar-435	0	vclaim-2524	1
tweet-ar-436	0	vclaim-2530	1
tweet-ar-436	0	vclaim-0941	1
tweet-ar-437	0	vclaim-2529	1
tweet-ar-438	0	vclaim-2534	1
tweet-ar-441	0	vclaim-2536	1
tweet-ar-442	0	vclaim-2538	1
tweet-ar-444	0	vclaim-2544	1
tweet-ar-449	0	vclaim-2548	1
tweet-ar-452	0	vclaim-2559	1
tweet-ar-453	0	vclaim-2553	1
tweet-ar-454	0	vclaim-2560	1
tweet-ar-455	0	vclaim-2565	1
tweet-ar-456	0	vclaim-2563	1
tweet-ar-456	0	vclaim-5283	1
tweet-ar-457	0	vclaim-2566	1
tweet-ar-458	0	vclaim-2562	1
tweet-ar-460	0	vclaim-2570	1
tweet-ar-462	0	vclaim-2569	1
tweet-ar-463	0	vclaim-2580	1
tweet-ar-464	0	vclaim-2577	1
tweet-ar-465	0	vclaim-2581	1
tweet-ar-466	0	vclaim-2575	1
tweet-ar-467	0	vclaim-2576	1
tweet-ar-468	0	vclaim-2582	1
tweet-ar-469	0	vclaim-2588	1
tweet-ar-470	0	vclaim-2587	1
tweet-ar-471	0	vclaim-2589	1
tweet-ar-473	0	vclaim-2583	1
tweet-ar-474	0	vclaim-2591	1
tweet-ar-475	0	vclaim-2605	1
tweet-ar-476	0	vclaim-2600	1
tweet-ar-477	0	vclaim-2606	1
tweet-ar-478	0	vclaim-2601	1
tweet-ar-481	0	vclaim-2608	1
tweet-ar-483	0	vclaim-2617	1
tweet-ar-485	0	vclaim-2619	1
tweet-ar-486	0	vclaim-2632	1
tweet-ar-487	0	vclaim-2627	1
tweet-ar-488	0	vclaim-2631	1
tweet-ar-490	0	vclaim-2633	1
tweet-ar-491	0	vclaim-2641	1
tweet-ar-492	0	vclaim-2635	1
tweet-ar-493	0	vclaim-2648	1
tweet-ar-495	0	vclaim-2651	1
tweet-ar-497	0	vclaim-2657	1
tweet-ar-499	0	vclaim-2660	1
tweet-ar-500	0	vclaim-2666	1
tweet-ar-502	0	vclaim-2671	1
tweet-ar-503	0	vclaim-2669	1
tweet-ar-504	0	vclaim-2676	1
tweet-ar-505	0	vclaim-2675	1
tweet-ar-506	0	vclaim-2677	1
tweet-ar-507	0	vclaim-2683	1
tweet-ar-508	0	vclaim-2685	1
tweet-ar-509	0	vclaim-2681	1
tweet-ar-510	0	vclaim-2688	1
tweet-ar-512	0	vclaim-2693	1
tweet-ar-513	0	vclaim-2704	1
tweet-ar-514	0	vclaim-2700	1
tweet-ar-516	0	vclaim-2699	1
tweet-ar-518	0	vclaim-2710	1
tweet-ar-520	0	vclaim-2707	1
tweet-ar-521	0	vclaim-2717	1
tweet-ar-523	0	vclaim-2725	1
tweet-ar-524	0	vclaim-2723	1
tweet-ar-525	0	vclaim-2721	1
tweet-ar-526	0	vclaim-2727	1
tweet-ar-528	0	vclaim-2733	1
tweet-ar-531	0	vclaim-2748	1
tweet-ar-532	0	vclaim-2743	1
tweet-ar-533	0	vclaim-2757	1
tweet-ar-534	0	vclaim-2753	1
tweet-ar-535	0	vclaim-2749	1
tweet-ar-538	0	vclaim-2773	1
tweet-ar-539	0	vclaim-2764	1
tweet-ar-540	0	vclaim-2770	1
tweet-ar-541	0	vclaim-2768	1
tweet-ar-542	0	vclaim-2767	1
tweet-ar-543	0	vclaim-2765	1
tweet-ar-544	0	vclaim-2780	1
tweet-ar-545	0	vclaim-2775	1
tweet-ar-546	0	vclaim-2779	1
tweet-ar-546	0	vclaim-0803	1
tweet-ar-547	0	vclaim-2778	1
tweet-ar-548	0	vclaim-2785	1
tweet-ar-550	0	vclaim-2781	1
tweet-ar-553	0	vclaim-2782	1
tweet-ar-555	0	vclaim-2795	1
tweet-ar-556	0	vclaim-2796	1
tweet-ar-557	0	vclaim-2792	1
tweet-ar-559	0	vclaim-2806	1
tweet-ar-559	0	vclaim-4643	1
tweet-ar-560	0	vclaim-2799	1
tweet-ar-561	0	vclaim-2800	1
tweet-ar-564	0	vclaim-2811	1
tweet-ar-566	0	vclaim-2820	1
tweet-ar-567	0	vclaim-2817	1
tweet-ar-569	0	vclaim-2824	1
tweet-ar-570	0	vclaim-2826	1
tweet-ar-571	0	vclaim-2830	1
tweet-ar-572	0	vclaim-2827	1
tweet-ar-574	0	vclaim-2833	1
tweet-ar-575	0	vclaim-2832	1
tweet-ar-576	0	vclaim-2843	1
tweet-ar-577	0	vclaim-2842	1
tweet-ar-578	0	vclaim-2845	1
tweet-ar-579	0	vclaim-2850	1
tweet-ar-579	0	vclaim-0251	1
tweet-ar-582	0	vclaim-2853	1
tweet-ar-583	0	vclaim-2851	1
tweet-ar-584	0	vclaim-2852	1
tweet-ar-585	0	vclaim-2847	1
tweet-ar-586	0	vclaim-2859	1
tweet-ar-587	0	vclaim-2858	1
tweet-ar-588	0	vclaim-2861	1
tweet-ar-589	0	vclaim-2856	1
tweet-ar-590	0	vclaim-2854	1
tweet-ar-591	0	vclaim-2857	1
tweet-ar-591	0	vclaim-5318	1
tweet-ar-595	0	vclaim-2869	1
tweet-ar-597	0	vclaim-2863	1
tweet-ar-598	0	vclaim-2866	1
tweet-ar-603	0	vclaim-2884	1
tweet-ar-604	0	vclaim-2880	1
tweet-ar-606	0	vclaim-2894	1
tweet-ar-608	0	vclaim-2897	1
tweet-ar-608	0	vclaim-4674	1
tweet-ar-609	0	vclaim-2902	1
tweet-ar-609	0	vclaim-4670	1
tweet-ar-609	0	vclaim-0271	1
tweet-ar-610	0	vclaim-2904	1
tweet-ar-612	0	vclaim-2907	1
tweet-ar-613	0	vclaim-2915	1
tweet-ar-615	0	vclaim-2917	1
tweet-ar-617	0	vclaim-2906	1
tweet-ar-619	0	vclaim-2929	1
tweet-ar-620	0	vclaim-2926	1
tweet-ar-621	0	vclaim-2931	1
tweet-ar-624	0	vclaim-2939	1
tweet-ar-626	0	vclaim-2934	1
tweet-ar-627	0	vclaim-2943	1
tweet-ar-629	0	vclaim-2945	1
tweet-ar-630	0	vclaim-2952	1
tweet-ar-631	0	vclaim-2953	1
tweet-ar-632	0	vclaim-2959	1
tweet-ar-633	0	vclaim-2957	1
tweet-ar-634	0	vclaim-2958	1
tweet-ar-635	0	vclaim-2964	1
tweet-ar-636	0	vclaim-2970	1
tweet-ar-638	0	vclaim-2971	1
tweet-ar-638	0	vclaim-5342	1
tweet-ar-639	0	vclaim-2974	1
tweet-ar-640	0	vclaim-2978	1
tweet-ar-641	0	vclaim-2973	1
tweet-ar-645	0	vclaim-2989	1
tweet-ar-646	0	vclaim-3004	1
tweet-ar-647	0	vclaim-2999	1
tweet-ar-647	0	vclaim-0293	1
tweet-ar-648	0	vclaim-3001	1
tweet-ar-649	0	vclaim-3007	1
tweet-ar-650	0	vclaim-3003	1
tweet-ar-651	0	vclaim-3014	1
tweet-ar-652	0	vclaim-3021	1
tweet-ar-652	0	vclaim-0299	1
tweet-ar-653	0	vclaim-3017	1
tweet-ar-654	0	vclaim-3030	1
tweet-ar-655	0	vclaim-3029	1
tweet-ar-656	0	vclaim-3035	1
tweet-ar-657	0	vclaim-3034	1
tweet-ar-661	0	vclaim-3040	1
tweet-ar-663	0	vclaim-3053	1
tweet-ar-664	0	vclaim-3048	1
tweet-ar-665	0	vclaim-3052	1
tweet-ar-666	0	vclaim-3406	1
tweet-ar-667	0	vclaim-3402	1
tweet-ar-668	0	vclaim-3409	1
tweet-ar-669	0	vclaim-3417	1
tweet-ar-670	0	vclaim-3412	1
tweet-ar-671	0	vclaim-3418	1
tweet-ar-672	0	vclaim-3422	1
tweet-ar-673	0	vclaim-3421	1
tweet-ar-674	0	vclaim-3425	1
tweet-ar-675	0	vclaim-3423	1
tweet-ar-676	0	vclaim-3424	1
tweet-ar-677	0	vclaim-3426	1
tweet-ar-683	0	vclaim-3440	1
tweet-ar-683	0	vclaim-0401	1
tweet-ar-685	0	vclaim-3452	1
tweet-ar-686	0	vclaim-3448	1
tweet-ar-687	0	vclaim-3451	1
tweet-ar-689	0	vclaim-3457	1
tweet-ar-690	0	vclaim-3463	1
tweet-ar-691	0	vclaim-3464	1
tweet-ar-691	0	vclaim-0392	1
tweet-ar-693	0	vclaim-3471	1
tweet-ar-694	0	vclaim-3470	1
tweet-ar-696	0	vclaim-3475	1
tweet-ar-697	0	vclaim-3466	1
tweet-ar-698	0	vclaim-3474	1
tweet-ar-699	0	vclaim-3472	1
tweet-ar-701	0	vclaim-3476	1
tweet-ar-702	0	vclaim-3481	1
tweet-ar-704	0	vclaim-3486	1
tweet-ar-705	0	vclaim-3490	1
tweet-ar-707	0	vclaim-3489	1
tweet-ar-708	0	vclaim-3491	1
tweet-ar-709	0	vclaim-3488	1
tweet-ar-713	0	vclaim-3502	1
tweet-ar-714	0	vclaim-3509	1
tweet-ar-715	0	vclaim-3511	1
tweet-ar-716	0	vclaim-3505	1
tweet-ar-717	0	vclaim-3512	1
tweet-ar-720	0	vclaim-3515	1
tweet-ar-723	0	vclaim-3520	1
tweet-ar-724	0	vclaim-3523	1
tweet-ar-726	0	vclaim-3527	1
tweet-ar-727	0	vclaim-3532	1
tweet-ar-729	0	vclaim-3545	1
tweet-ar-732	0	vclaim-3551	1
tweet-ar-734	0	vclaim-3555	1
tweet-ar-735	0	vclaim-3560	1
tweet-ar-736	0	vclaim-3554	1
tweet-ar-738	0	vclaim-3565	1
tweet-ar-739	0	vclaim-3564	1
tweet-ar-740	0	vclaim-3566	1
tweet-ar-744	0	vclaim-3579	1
tweet-ar-747	0	vclaim-3598	1
tweet-ar-749	0	vclaim-3605	1
tweet-ar-750	0	vclaim-3616	1
tweet-ar-750	0	vclaim-0375	1
tweet-ar-752	0	vclaim-3613	1
tweet-ar-753	0	vclaim-3624	1
tweet-ar-755	0	vclaim-3628	1
tweet-ar-756	0	vclaim-3642	1
tweet-ar-758	0	vclaim-3638	1
tweet-ar-759	0	vclaim-3644	1
tweet-ar-763	0	vclaim-3657	1
tweet-ar-765	0	vclaim-3663	1
tweet-ar-767	0	vclaim-3680	1
tweet-ar-768	0	vclaim-3676	1
tweet-ar-769	0	vclaim-3682	1
tweet-ar-770	0	vclaim-3677	1
tweet-ar-771	0	vclaim-3686	1
tweet-ar-773	0	vclaim-3687	1
tweet-ar-773	0	vclaim-4820	1
tweet-ar-774	0	vclaim-3688	1
tweet-ar-775	0	vclaim-3689	1
tweet-ar-776	0	vclaim-3693	1
tweet-ar-777	0	vclaim-3695	1
tweet-ar-778	0	vclaim-3709	1
tweet-ar-779	0	vclaim-3713	1
tweet-ar-780	0	vclaim-3711	1
tweet-ar-781	0	vclaim-3724	1
tweet-ar-784	0	vclaim-3734	1
tweet-ar-786	0	vclaim-3737	1
tweet-ar-787	0	vclaim-3744	1
tweet-ar-787	0	vclaim-0481	1
tweet-ar-789	0	vclaim-3758	1
tweet-ar-790	0	vclaim-3760	1
tweet-ar-791	0	vclaim-3765	1
tweet-ar-793	0	vclaim-3769	1
tweet-ar-794	0	vclaim-3773	1
tweet-ar-795	0	vclaim-3770	1
tweet-ar-796	0	vclaim-3776	1
tweet-ar-797	0	vclaim-3779	1
tweet-ar-799	0	vclaim-4103	1
tweet-ar-800	0	vclaim-4116	1
tweet-ar-801	0	vclaim-4120	1
tweet-ar-802	0	vclaim-4123	1
tweet-ar-804	0	vclaim-4142	1
tweet-ar-805	0	vclaim-4143	1
tweet-ar-807	0	vclaim-4167	1
tweet-ar-809	0	vclaim-4189	1
tweet-ar-811	0	vclaim-4195	1
tweet-ar-814	0	vclaim-4208	1
tweet-ar-815	0	vclaim-4216	1
tweet-ar-816	0	vclaim-4226	1
tweet-ar-816	0	vclaim-4996	1
tweet-ar-817	0	vclaim-4247	1
tweet-ar-819	0	vclaim-0150	1
tweet-ar-820	0	vclaim-0155	1
tweet-ar-821	0	vclaim-0159	1
tweet-ar-822	0	vclaim-0163	1
tweet-ar-823	0	vclaim-0165	1
tweet-ar-824	0	vclaim-0178	1
tweet-ar-827	0	vclaim-0196	1
tweet-ar-829	0	vclaim-0208	1
tweet-ar-830	0	vclaim-0215	1
tweet-ar-831	0	vclaim-0216	1
tweet-ar-832	0	vclaim-0217	1
tweet-ar-833	0	vclaim-0218	1
tweet-ar-834	0	vclaim-0222	1
tweet-ar-835	0	vclaim-0232	1
tweet-ar-836	0	vclaim-0235	1
tweet-ar-837	0	vclaim-0237	1
tweet-ar-839	0	vclaim-0240	1
tweet-ar-839	0	vclaim-3539	1
tweet-ar-841	0	vclaim-0245	1
tweet-ar-841	0	vclaim-4637	1
tweet-ar-843	0	vclaim-0252	1
tweet-ar-844	0	vclaim-0256	1
tweet-ar-845	0	vclaim-0270	1
tweet-ar-846	0	vclaim-0282	1
tweet-ar-847	0	vclaim-0294	1
tweet-ar-848	0	vclaim-0302	1
tweet-ar-849	0	vclaim-0316	1
tweet-ar-850	0	vclaim-0321	1
tweet-ar-851	0	vclaim-0328	1
tweet-ar-851	0	vclaim-3138	1
tweet-ar-852	0	vclaim-0337	1
tweet-ar-853	0	vclaim-0338	1
tweet-ar-853	0	vclaim-4724	1
tweet-ar-854	0	vclaim-0348	1
tweet-ar-855	0	vclaim-0355	1
tweet-ar-857	0	vclaim-0370	1
tweet-ar-858	0	vclaim-0371	1
tweet-ar-860	0	vclaim-0381	1
tweet-ar-861	0	vclaim-0393	1
tweet-ar-861	0	vclaim-4769	1
tweet-ar-861	0	vclaim-3473	1
tweet-ar-201	0	vclaim-15057	1
tweet-ar-478	0	vclaim-13821	1
tweet-ar-669	0	vclaim-0367	1
tweet-ar-273	0	vclaim-0559	1
tweet-ar-006	0	vclaim-5244	1
tweet-ar-036	0	vclaim-5010	1
tweet-ar-037	0	vclaim-4518	1
tweet-ar-057	0	vclaim-0162	1
tweet-ar-060	0	vclaim-0969	1
tweet-ar-065	0	vclaim-5262	1
tweet-ar-082	0	vclaim-4706	1
tweet-ar-085	0	vclaim-0268	1
tweet-ar-094	0	vclaim-0594	1
tweet-ar-100	0	vclaim-4728	1
tweet-ar-132	0	vclaim-4221	1
tweet-ar-162	0	vclaim-4754	1
tweet-ar-179	0	vclaim-1141	1
tweet-ar-201	0	vclaim-5368	1
tweet-ar-221	0	vclaim-0558	1
tweet-ar-223	0	vclaim-4861	1
tweet-ar-235	0	vclaim-3964	1
tweet-ar-239	0	vclaim-4866	1
tweet-ar-246	0	vclaim-4530	1
tweet-ar-247	0	vclaim-0569	1
tweet-ar-263	0	vclaim-0601	1
tweet-ar-264	0	vclaim-0605	1
tweet-ar-271	0	vclaim-0612	1
tweet-ar-275	0	vclaim-4905	1
tweet-ar-277	0	vclaim-5431	1
tweet-ar-287	0	vclaim-3577	1
tweet-ar-289	0	vclaim-3708	1
tweet-ar-294	0	vclaim-4937	1
tweet-ar-318	0	vclaim-5241	1
tweet-ar-321	0	vclaim-0917	1
tweet-ar-354	0	vclaim-4493	1
tweet-ar-403	0	vclaim-4554	1
tweet-ar-441	0	vclaim-5280	1
tweet-ar-540	0	vclaim-5468	1
tweet-ar-569	0	vclaim-0245	1
tweet-ar-570	0	vclaim-3188	1
tweet-ar-574	0	vclaim-0260	1
tweet-ar-603	0	vclaim-4666	1
tweet-ar-641	0	vclaim-0287	1
tweet-ar-704	0	vclaim-2721	1
tweet-ar-709	0	vclaim-1348	1
tweet-ar-729	0	vclaim-0418	1
tweet-ar-778	0	vclaim-4821	1
tweet-ar-819	0	vclaim-2294	1
tweet-ar-843	0	vclaim-2868	1
tweet-ar-850	0	vclaim-3894	1
tweet-ar-822	0	vclaim-2397	1
tweet-ar-822	0	vclaim-5262	1
tweet-ar-065	0	vclaim-0163	1
